akc: A Tidy Framework for Automatic Knowledge Classification in R
…
Results presentation

Currently, there are two kinds of output presented by akc. One is a summarized result, namely a table with group number and keyword collections (attached with frequency). Another is network visualization, which has two modes. The local mode provides a keyword co-occurrence network by group (use facets in ggplot2), whereas the global mode displays the whole network structure. Note that one might include huge number of keywords and make a huge network, but in presentation the users could choose how many keywords from each group to be displayed. More details could be found in the following sections.

The akc framework could never be built without the powerful support provided by R community. The akc package was developed under R environment, and main packages imported to akc framework include  (for high performance computing), dplyr (for tidy data manipulation), ggplot2 (for data visualization), ggraph (for network visualization), ggwordcloud (for word cloud visualization), igraph (for network analysis), stringr (for string operations), textstem (for lemmatizing and stemming), tidygraph (for network data manipulation) and tidytext (for tidy tokenization). Getting more understandings on these R packages could help users utilize more alternative functions, so as to complete more specific and complex tasks. Hopefully, the users might also become potential developers of the akc framework in the future.

Example

This section shows how akc can be used in a real case. A collection of bibliometric data of R Journal from 2009 to 2021 is used in this example. The data of this example can be accessed in the GitHub repository. Only akc package would be used in this workflow, first we would load the package and import the data in the R environment.

library(akc)
rj_bib = readRDS("./rj_bib.rds")
rj_bib

# A tibble: 568 x 4
      id title                                          abstract  year
   <int> <chr>                                          <chr>    <dbl>
 1     1 Aspects of the Social Organization and Trajec~ Based p~  2009
 2     2 asympTest: A Simple R Package for Classical P~ asympTe~  2009
 3     3 ConvergenceConcepts: An R Package to Investig~ Converg~  2009
 4     4 copas: An R package for Fitting the Copas Sel~ This ar~  2009
 5     5 Party on!                                      Random ~  2009
 6     6 Rattle: A Data Mining GUI for R                Data mi~  2009
 7     7 sos: Searching Help Pages of R Packages        The sos~  2009
 8     8 The New R Help System                          Version~  2009
 9     9 Transitioning to R: Replicating SAS, Stata, a~ Statist~  2009
10    10 Bayesian Estimation of the GARCH(1,1) Model w~ This no~  2010
# ... with 558 more rows

rj_bib is a data frame with 4 columns, including id (Paper ID), title (Title of paper), abstract (Abstract of paper) and year (Publcation year of paper). Papers in R Journal do not contain keyword field, thus we would have to extract the keywords from the title or abstract field (first step in Figure 1). Here in our case, we would use abstract field as our data source. In addition, we would need a user-defined dictionary to extract the keywords, otherwise all the n-grams (meaningful or meaningless) would be extracted and the results would include redundant noise.

# import the user-defined dictionary
rj_user_dict = readRDS("./rj_user_dict.rds")
rj_user_dict

# A tibble: 627 x 1
   keyword            
   <chr>              
 1 seasonal-adjustment
 2 unit roots         
 3 transformations    
 4 decomposition      
 5 combination        
 6 integration        
 7 competition        
 8 regression         
 9 accuracy           
10 symmetry           
# ... with 617 more rows
…
